filename,toptext,hash,background,icon,paint,sticker
1,VESSEL,tzl92Z, Orange Cyan,Flag, Multicolor Yellow Center, monster left cause top
2,CAPITOL,oD30ve, Cyan Red,Face, Blue Eyes Bleeding, monster bottom 420
3,PREY,71O3e9, Red Yellow,Face, Multicolor Yellow Center, Special center 420
4,STATUS,05uLbC, Green Magenta,Triple Bars,Yellow Eyes Bleeding, Special center 420
5,PILGRIM,rvRf6O, Yellow Blue,Eagle with Stripe, Green Scattered, monster left cause top
6,DESPOT,19xZh0, Yellow Blue,Louis XIV,Yellow Eyes Bleeding, monster top 420
7,MAGNET,jP9YZP, Red Yellow,Candle, Multicolor Yellow Center, Special eye
8,DESPOT,EGv4eq, Red Yellow,Louis XIV,Red Eyes Bleeding, monster center special
9,DESPOT,Bp9HqG, Red Yellow,Bull Gummy Overprint, Blue Eyes Bleeding, monster bottom 420
10,FLOCK,g5kg1C, Cyan Red,Double Eagle, Pink Double Drip, monster center special
11,GUARDIAN,b27CXc, Red Yellow,Cyclops, Yellow Center, monster center special
12,CAPITOL,UOEQYm, Green Magenta,Human and Serpent,Red Eyes Bleeding, monster top 420
13,PREY,55xf00, Yellow Blue,Bull with Circles, White Eyes Bleeding, monster top 420
14,STATUS,7p8V42, Orange Cyan,Louis XIV, Yellow Eyes and Mouth, monster left cause top
15,BOUNTY,y2QMH6, Yellow Blue,Bull,Purple Eyes Bleeding, Cause Bottom Left
16,RARE,yq208Y, Green Magenta,Face,Pink Eyes and Mouth, Cause Center
17,STATUS,A0Q02x, Red Yellow,Bull Gummy Overprint,Red Eyes Bleeding, monster left cause top
18,FLOCK,rF16Vr, Red Yellow,Louis XIV,Pink Eyes and Mouth, Cause Center
19,PARALLEL,VTt6kw, Yellow Blue,Louis XIV,Red Eyes Bleeding, monster top 420
20,CAPITOL,r756l2, Yellow Blue,Face, Red Scattered, Special eye
21,BOUNTY,4rx7h8, Orange Cyan,Eagle,Purple Eyes Bleeding, Cause Center
22,RARE,i4z6jP, Green Magenta,Face, Multicolor Blue Center, monster top 420
23,CAPITOL,XM68Cz, Green Orange,Nine Circles, Yellow Eyes and Mouth, monster bottom 420
24,GUARDIAN,H3G716, Yellow Blue,Flag and Key, Multicolor Blue Center, monster left cause top
25,BOUNTY,g8Ij0x, Red Yellow,Eagle, Red Scattered, monster center special
26,BOUNTY,nM7POh, Yellow Blue,Key, Blue Eyes Bleeding, monster left cause top
27,PREY,h2PFQX, Green Magenta,Louis XIV, Pink Double Drip, Special eye
28,GUARDIAN,5t905C, Red Yellow,Double Eagle, Blue One Eye, monster left cause top
29,PREY,4bBkFX, Orange Cyan,Globe, Blue Eyes Bleeding, monster bottom 420
30,PARALLEL,F4T8lH, Green Magenta,Human,Purple Eyes Bleeding, monster center special
31,RARE,sMno3l, Green White,Shadow,Purple Eyes Bleeding, monster bottom 420
32,MAGNET,E7vM8N, Green Orange,Louis XIV, Blue Eyes Bleeding, Cause Bottom Left
33,VESSEL,1Fiqq3, Orange Cyan,Louis XIV, Pink on Text, Special bottom circle
34,MAGNET,y2SJG0, Cyan Red,Geometric Solid, Blue One Eye, monster bottom 420
35,SPAWN,39mIG3, Green Magenta,Louis XIV, Green on Text, Special bottom circle
36,SPAWN,85F323, Green White,Candle,Pink Eyes and Mouth, Cause Bottom Left
37,CAPITOL,NCyqUV, Red Yellow,Flag,Pink Eyes and Mouth, monster top 420
38,RARE,04XDu7, Yellow Blue,Face, Green on Text, monster center special
39,PARALLEL,w624ej, Green Orange,Gummy with Squares, Pink on Text, monster bottom 420
40,STATUS,YkmQI9, Cyan Red,Dice, Blue Eyes Bleeding, monster bottom 420
41,PARALLEL,6ke9CM, Yellow Blue,Geometric Solid, Multicolor Blue Center, monster top 420
42,FACTURE,Uo9sAk, Orange Cyan,Flag, Yellow Center, monster center special
43,VESSEL,nH1aI2, Red Yellow,Double Human, Pink Double Drip, monster top 420
44,PILGRIM,jwNMo3, Cyan Red,Candle, Blue One Eye, monster left cause top
45,RARE,vztAVS, Green Magenta,Dice, Yellow Center, monster left cause top
46,PARALLEL,a53n3G, Green Magenta,Human and Geometric Solid,Yellow Eyes Bleeding, monster center special
47,PREY,HJoYea, Orange Cyan,Flag, Blue One Eye, Special eye
48,RARE,2Qen44, Yellow Blue,Triple Stripes, Yellow Eyes and Mouth, monster top 420
49,CAPITOL,sn38n0, Orange Cyan,Face, Pink Double Drip, monster bottom 420
50,PREY,7dmUKk, Yellow Blue,Flag,Red Eyes Bleeding, Special eye
51,GUARDIAN,K0muUU, Green Magenta,Double Human, Blue on Text, monster bottom 420
52,GUARDIAN,1br750, Yellow Blue,Bull, Blue Eyes Bleeding, Cause Bottom Left
53,BOUNTY,Kh94j9, Yellow Blue,Double Prison, Blue on Text, monster left cause top
54,PARALLEL,jYk7DV, Green Orange,Globe, Blue One Eye, Special bottom circle
55,GUARDIAN,SK414s, Green Orange,Face, Green Scattered, monster center special
56,BOUNTY,2x6MA7, Red Yellow,Dice, Yellow Eyes and Mouth, Special bottom circle
57,RETORT,669gVF, Yellow Blue,Eagle with Stripe, Yellow Eyes and Mouth, monster center special
58,PREY,o10ts3, Yellow Blue,Double Serpent,Red Eyes Bleeding, Cause Bottom Left
59,PREY,iWzJog, Yellow Blue,Eagle, Multicolor Blue Center, monster top 420
60,MAGNET,rrJfDK, Green Magenta,Dice, Green Scattered, Cause Bottom Left
61,GUARDIAN,P0051O, Orange Cyan,Bull, Multicolor Blue Center, Cause Bottom Left
62,DESPOT,1V17Q7, White Cyan,Bull, Green Scattered, monster left cause top
63,GUARDIAN,ldi7LB, Orange Cyan,Triple Keys, Blue One Eye, monster center special
64,CAPITOL,2d6V3G, Red Yellow,Candle with Globes, Blue One Eye, monster bottom 420
65,CAPITOL,kQtnc1, Red Yellow,Globe,Yellow Eyes Bleeding, monster top 420
66,STATUS,V2G3R4, Red Yellow,Flag and Key, Green on Text, monster center special
67,PILGRIM,FRDfrn, Red Yellow,Candle with Globes, Pink on Text, monster left cause top
68,MAGNET,JT7aNO, Green White,Human and Serpent, Yellow Center, monster bottom 420
69,CAPITOL,d7U03R, Yellow Blue,Face, Yellow Center, monster top 420
70,GUARDIAN,b41oW7, Orange Cyan,Prison, Red Scattered, monster center special
71,MAGNET,pPCPRn, Cyan Red,Gummy with Squares, Blue Eyes Bleeding, monster top 420
72,DESPOT,3XZ5FM, Yellow Blue,Six Circles,Red Eyes Bleeding, monster left cause top
73,VESSEL,DtFZVx, Yellow Blue,Candle with Shadow, Green Scattered, Cause Center
74,PARALLEL,JZq9M3, Green Orange,Flag and Key, Yellow Eyes and Mouth, Cause Bottom Left
75,MAGNET,746V86, Green Magenta,Candle,Pink Eyes and Mouth, monster bottom 420
76,MAGNET,Bgi9mz, Cyan Red,Dice,Pink Eyes and Mouth, monster bottom 420
77,DESPOT,K7h1og, Green Orange,Face, Blue Eyes Bleeding, monster bottom 420
78,PARALLEL,y8F5Fd, Red Yellow,Triple Bars, Yellow Eyes and Mouth, Special eye
79,CAPITOL,ABrfwg, Red Yellow,Candle,Yellow Eyes Bleeding, Cause Bottom Left
80,STATUS,1w0MUZ, Red Yellow,Flag,Pink Eyes and Mouth, Special bottom circle
81,CAPITOL,XWdupM, Red Yellow,Triple Stripes, Yellow Center, monster center special
82,STATUS,LJq990, Orange Cyan,Human and Serpent, Green Scattered, monster bottom 420
83,PILGRIM,76A7XT, Cyan Red,Candle, Green on Text, Special center 420
84,DESPOT,1my7ir, Yellow Blue,Triple Keys, Yellow Center, Cause Double Center
85,FLOCK,sHBFNw, Orange Cyan,Candle with Shadow, Green Scattered, monster bottom 420
86,MAGNET,914Px4, Green White,Double Prison, Red Scattered, monster left cause top
87,PARALLEL,e7LwE0, Cyan Red,Human and Geometric Solid, Red Scattered, Cause Bottom Left
88,OLD ONE,355YfG, Green Orange,Flag and Key, Green on Text, monster bottom 420
89,PILGRIM,0K5K06, Yellow Blue,Double Human, Green on Text, Cause Center
90,MAGNET,i5QYsA, Yellow Blue,Geometric Solid, Multicolor Blue Center, Cause Double Center
91,PREY,7Hcadj, Red Yellow,Human, Yellow Eyes and Mouth, Special center 420
92,STATUS,seEboI, Red Yellow,Six Circles, Multicolor Yellow Center, monster bottom 420
93,FLOCK,2Tm2sG, Cyan Red,Bull with Circles,Yellow Eyes Bleeding, monster left cause top
94,FLOCK,sS1SK9, Yellow Blue,Face,Pink Eyes and Mouth, Cause Bottom Left
95,VESSEL,pUj2y6, Yellow Blue,Bull, Blue One Eye, monster top 420
96,RARE,2IGCce, Red Yellow,Gummy with Stripe, Yellow Center, monster left cause top
97,CAPITOL,Gi3l8G, Green Magenta,Square Cyclops, Blue on Text, monster center special
98,GUARDIAN,iBu42P, Yellow Blue,Flag, Green Scattered, Cause Center
99,RARE,h6n316, Red Yellow,Globe, Multicolor Yellow Center, Cause Bottom Left
100,CAPITOL,6NW6PS, Yellow Blue,Dice, White Eyes Bleeding, monster top 420